Sun Feb 10 02:43:46 CET 2019
Preloading tcmalloc_minimal.so
Py:Athena            INFO including file "AthenaCommon/Preparation.py"
Py:Athena            INFO using release [AthenaExternals-22.0.1] [x86_64-centos7-gcc8-opt] [2.0.22/2840e19] -- built on [2019-02-07T2103]
Py:Athena            INFO including file "AthenaCommon/Atlas.UnixStandardJob.py"
Py:Athena            INFO executing ROOT6Setup
Py:Athena            INFO including file "AthenaCommon/Execution.py"
Py:Athena            INFO including file "IOVDbTestAlg/IOVDbTestAlgWriteCoolNoReg.py"
Py:ConfigurableDb    INFO Read module info for 5454 configurables from 43 genConfDb files
Py:ConfigurableDb    INFO No duplicates have been found: that's good !
Py:Athena            INFO including file "AthenaCommon/runbatch.py"
ApplicationMgr       INFO Updating Gaudi::PluginService::SetDebug(level) to level= 'PluginDebugLevel':0
ApplicationMgr       INFO Updating Gaudi::PluginService::SetDebug(level) to level= 'PluginDebugLevel':0
ApplicationMgr    SUCCESS 
====================================================================================================================================
                                                   Welcome to ApplicationMgr (GaudiCoreSvc v30r5)
                                          running on lxplus054.cern.ch on Sun Feb 10 02:44:01 2019
====================================================================================================================================
ApplicationMgr       INFO Successfully loaded modules : AthenaServices
ApplicationMgr       INFO Application Manager Configured successfully
ApplicationMgr                   INFO Updating Gaudi::PluginService::SetDebug(level) to level= 'PluginDebugLevel':0
StatusCodeSvc                    INFO initialize
AthDictLoaderSvc                 INFO in initialize...
AthDictLoaderSvc                 INFO acquired Dso-registry
ClassIDSvc                       INFO  getRegistryEntries: read 3045 CLIDRegistry entries for module ALL
CoreDumpSvc                      INFO install f-a-t-a-l handler... (flag = -1)
CoreDumpSvc                      INFO Handling signals: 11(Segmentation fault) 7(Bus error) 4(Illegal instruction) 8(Floating point exception) 
AthenaEventLoopMgr               INFO Initializing AthenaEventLoopMgr - package version AthenaServices-00-00-00
ClassIDSvc                       INFO  getRegistryEntries: read 770 CLIDRegistry entries for module ALL
xAODMaker::EventInfoCnvAlg       INFO Initializing - Package version: xAODEventInfoCnv-00-00-00
xAODMaker::EventInfoCnvAlg....   INFO Initializing - Package version: xAODEventInfoCnv-00-00-00
MetaDataSvc                      INFO Initializing MetaDataSvc - package version AthenaServices-00-00-00
AthenaPoolCnvSvc                 INFO Initializing AthenaPoolCnvSvc - package version AthenaPoolCnvSvc-00-00-00
PoolSvc                          INFO io_register[PoolSvc](xmlcatalog_file:PoolFileCatalog.xml) [ok]
PoolSvc                          INFO Set connectionsvc retry/timeout/IDLE timeout to  'ConnectionRetrialPeriod':300/ 'ConnectionRetrialTimeOut':3600/ 'ConnectionTimeOut':5 seconds with connection cleanup disabled
PoolSvc                          INFO Frontier compression level set to 5
DBReplicaSvc                     INFO Frontier server at (serverurl=http://atlasfrontier-local.cern.ch:8000/atlr)(serverurl=http://atlasfrontier-ai.cern.ch:8000/atlr)(serverurl=http://lcgft-atlas.gridpp.rl.ac.uk:3128/frontierATLAS)(serverurl=http://ccfrontier.in2p3.fr:23128/ccin2p3-AtlasFrontier)(proxyurl=http://ca-proxy.cern.ch:3128)(proxyurl=http://ca-proxy-meyrin.cern.ch:3128)(proxyurl=http://ca-proxy-wigner.cern.ch:3128)(proxyurl=http://atlasbpfrontier.cern.ch:3127)(proxyurl=http://atlasbpfrontier.fnal.gov:3127) will be considered for COOL data
DBReplicaSvc                     INFO Read replica configuration from /cvmfs/atlas-nightlies.cern.ch/repo/sw/master/2019-02-07T2139/Athena/22.0.1/InstallArea/x86_64-centos7-gcc8-opt/share/dbreplica.config
DBReplicaSvc                     INFO Total of 10 servers found for host lxplus054.cern.ch [ATLF ATLAS_COOLPROD atlas_dd ATLAS_CONFIG INT8R INTR ATONR_COOL ATONR_CONF DEVDB11 ATLF ]
PoolSvc                          INFO Successfully setup replica sorting algorithm
PoolSvc                          INFO Setting up APR FileCatalog and Streams
PoolSvc                          INFO POOL WriteCatalog is xmlcatalog_file:PoolFileCatalog.xml
DbSession                        INFO     Open     DbSession    
Domain[ROOT_All]                 INFO >   Access   DbDomain     READ      [ROOT_All] 
MetaDataSvc                      INFO Found MetaDataTools = PublicToolHandleArray([])
xAODMaker::EventInfoCnvAlg....WARNING Beam conditions service not available
xAODMaker::EventInfoCnvAlg....WARNING Will not fill beam spot information into xAOD::EventInfo
xAODMaker::EventInfoCnvAlg....   INFO Luminosity information not available
xAODMaker::EventInfoCnvAlg....   INFO Will take information from the EventInfo object
ClassIDSvc                       INFO  getRegistryEntries: read 1707 CLIDRegistry entries for module ALL
IOVDbTestAlg                    DEBUG Property update for OutputLevel : new value = 2
IOVDbTestAlg                    DEBUG in initialize()
ToolSvc.CondStream1              INFO Initializing ToolSvc.CondStream1 - package version AthenaServices-00-00-00
IOVDbTestAlg                    DEBUG input handles: 0
IOVDbTestAlg                    DEBUG output handles: 0
IOVDbTestAlg                    DEBUG Data Deps for IOVDbTestAlg
HistogramPersistencySvc       WARNING Histograms saving not required.
EventSelector                    INFO  Enter McEventSelector Initialization 
AthenaEventLoopMgr               INFO Setup EventSelector service EventSelector
ApplicationMgr                   INFO Application Manager Initialized successfully
ApplicationMgr                   INFO Application Manager Started successfully
EventPersistencySvc              INFO Added successfully Conversion service:McCnvSvc
AthenaEventLoopMgr               INFO   ===>>>  start of run 1    <<<===
AthenaEventLoopMgr               INFO   ===>>>  start processing event #1, run #1 0 events processed so far  <<<===
IOVDbTestAlg                    DEBUG Event (run,ev,lb:time): [1,1:0]
IOVDbTestAlg                    DEBUG Event NOT selected for creating conditions objects 
AthenaEventLoopMgr               INFO   ===>>>  done processing event #1, run #1 1 events processed so far  <<<===
AthenaEventLoopMgr               INFO   ===>>>  start processing event #2, run #1 1 events processed so far  <<<===
IOVDbTestAlg                    DEBUG Event (run,ev,lb:time): [1,2:5]
IOVDbTestAlg                    DEBUG Event NOT selected for creating conditions objects 
AthenaEventLoopMgr               INFO   ===>>>  done processing event #2, run #1 2 events processed so far  <<<===
AthenaEventLoopMgr               INFO   ===>>>  start processing event #3, run #1 2 events processed so far  <<<===
IOVDbTestAlg                    DEBUG Event (run,ev,lb:time): [1,3:10]
IOVDbTestAlg                    DEBUG Event NOT selected for creating conditions objects 
AthenaEventLoopMgr               INFO   ===>>>  done processing event #3, run #1 3 events processed so far  <<<===
AthenaEventLoopMgr               INFO   ===>>>  start processing event #4, run #1 3 events processed so far  <<<===
IOVDbTestAlg                    DEBUG Event (run,ev,lb:time): [1,4:15]
IOVDbTestAlg                    DEBUG Event NOT selected for creating conditions objects 
AthenaEventLoopMgr               INFO   ===>>>  done processing event #4, run #1 4 events processed so far  <<<===
AthenaEventLoopMgr               INFO   ===>>>  start processing event #5, run #1 4 events processed so far  <<<===
IOVDbTestAlg                    DEBUG Event (run,ev,lb:time): [1,5:20]
IOVDbTestAlg                    DEBUG Event NOT selected for creating conditions objects 
AthenaEventLoopMgr               INFO   ===>>>  done processing event #5, run #1 5 events processed so far  <<<===
AthenaEventLoopMgr               INFO   ===>>>  start of run 2    <<<===
AthenaEventLoopMgr               INFO   ===>>>  start processing event #1, run #2 5 events processed so far  <<<===
IOVDbTestAlg                    DEBUG Event (run,ev,lb:time): [2,1:25]
IOVDbTestAlg                    DEBUG Event NOT selected for creating conditions objects 
AthenaEventLoopMgr               INFO   ===>>>  done processing event #1, run #2 6 events processed so far  <<<===
AthenaEventLoopMgr               INFO   ===>>>  start processing event #2, run #2 6 events processed so far  <<<===
IOVDbTestAlg                    DEBUG Event (run,ev,lb:time): [2,2:30]
IOVDbTestAlg                    DEBUG Event NOT selected for creating conditions objects 
AthenaEventLoopMgr               INFO   ===>>>  done processing event #2, run #2 7 events processed so far  <<<===
AthenaEventLoopMgr               INFO   ===>>>  start processing event #3, run #2 7 events processed so far  <<<===
IOVDbTestAlg                    DEBUG Event (run,ev,lb:time): [2,3:35]
IOVDbTestAlg                    DEBUG Event NOT selected for creating conditions objects 
AthenaEventLoopMgr               INFO   ===>>>  done processing event #3, run #2 8 events processed so far  <<<===
AthenaEventLoopMgr               INFO   ===>>>  start processing event #4, run #2 8 events processed so far  <<<===
IOVDbTestAlg                    DEBUG Event (run,ev,lb:time): [2,4:40]
IOVDbTestAlg                    DEBUG Event NOT selected for creating conditions objects 
AthenaEventLoopMgr               INFO   ===>>>  done processing event #4, run #2 9 events processed so far  <<<===
AthenaEventLoopMgr               INFO   ===>>>  start processing event #5, run #2 9 events processed so far  <<<===
IOVDbTestAlg                    DEBUG Event (run,ev,lb:time): [2,5:45]
IOVDbTestAlg                    DEBUG Creating condtions objects 
IOVDbTestAlg                     INFO in createCondObjects()
IOVDbTestAlg                    DEBUG Attribute list [xPosition (float) : 0], [id (int) : 7], [name (string) : TestAttrList]
IOVDbTestAlg                    DEBUG ChanNum 16 Attribute list [xPosition (float) : 35], [id (int) : 17], [name (string) : TestAttrList]
IOVDbTestAlg                    DEBUG ChanNum 26 Attribute list [xPosition (float) : 45], [id (int) : 27], [name (string) : TestAttrList]
IOVDbTestAlg                    DEBUG ChanNum 36 Attribute list [xPosition (float) : 55], [id (int) : 37], [name (string) : TestAttrList]
IOVDbTestAlg                     INFO in printCondObjects()
IOVDbTestAlg                     INFO Retrieved IOVDbTestMDTEleMap 
IOVDbTestAlg                     INFO Found mdt element map run 0 event 0 time  45
IOVDbTestAlg                     INFO Retrieved /IOVDbTest/IOVDbTestAMDBCorrection
IOVDbTestAlg                     INFO Found amdb correction trans 1 2 3 rot 4 5 6
IOVDbTestAlg                    DEBUG Retrieved IOVDbTestAttrList
IOVDbTestAlg                    DEBUG Attribute list {xPosition (float) : 0,id (int) : 7,name (string) : TestAttrList}
IOVDbTestAlg                    DEBUG Retrieved IOVDbTestAttrListColl
IOVDbTestAlg                    DEBUG ChanNum 16 Attribute list [xPosition (float) : 35], [id (int) : 17], [name (string) : TestAttrList]
IOVDbTestAlg                    DEBUG No range found 
IOVDbTestAlg                    DEBUG ChanNum 26 Attribute list [xPosition (float) : 45], [id (int) : 27], [name (string) : TestAttrList]
IOVDbTestAlg                    DEBUG No range found 
IOVDbTestAlg                    DEBUG ChanNum 36 Attribute list [xPosition (float) : 55], [id (int) : 37], [name (string) : TestAttrList]
IOVDbTestAlg                    DEBUG No range found 
DetectorStore                 WARNING retrieve(const): No valid proxy for object /Simulation/Parameters  of type AthenaAttributeList(CLID 40774348)
IOVDbTestAlg                  WARNING Could not retrieve Simulation parameters
DetectorStore                 WARNING retrieve(const): No valid proxy for object /Digitization/Parameters  of type AthenaAttributeList(CLID 40774348)
IOVDbTestAlg                  WARNING Could not retrieve Digitization parameters
IOVDbTestAlg                     INFO Retrieved IOVDbTestMDTEleMapColl 
IOVDbTestAlg                     INFO Found mdt element map run 0 event 0 time  45 channel 1
IOVDbTestAlg                     INFO Found mdt element map run 0 event 0 time  55 channel 4
IOVDbTestAlg                     INFO Found mdt element map run 0 event 0 time  65 channel 7
IOVDbTestAlg                     INFO Found mdt element map run 0 event 0 time  75 channel 10
IOVDbTestAlg                     INFO Found mdt element map run 0 event 0 time  85 channel 13
IOVDbTestAlg                     INFO Found mdt element map run 0 event 0 time  95 channel 16
IOVDbTestAlg                     INFO Found mdt element map run 0 event 0 time  105 channel 19
IOVDbTestAlg                     INFO Found mdt element map run 0 event 0 time  115 channel 22
IOVDbTestAlg                     INFO Found mdt element map run 0 event 0 time  125 channel 25
IOVDbTestAlg                     INFO Found mdt element map run 0 event 0 time  135 channel 28
AthenaEventLoopMgr               INFO   ===>>>  done processing event #5, run #2 10 events processed so far  <<<===
AthenaEventLoopMgr               INFO   ===>>>  start of run 3    <<<===
AthenaEventLoopMgr               INFO   ===>>>  start processing event #1, run #3 10 events processed so far  <<<===
IOVDbTestAlg                    DEBUG Event (run,ev,lb:time): [3,1:50]
IOVDbTestAlg                    DEBUG Event NOT selected for creating conditions objects 
AthenaEventLoopMgr               INFO   ===>>>  done processing event #1, run #3 11 events processed so far  <<<===
AthenaEventLoopMgr               INFO   ===>>>  start processing event #2, run #3 11 events processed so far  <<<===
IOVDbTestAlg                    DEBUG Event (run,ev,lb:time): [3,2:55]
IOVDbTestAlg                    DEBUG Event NOT selected for creating conditions objects 
AthenaEventLoopMgr               INFO   ===>>>  done processing event #2, run #3 12 events processed so far  <<<===
AthenaEventLoopMgr               INFO   ===>>>  start processing event #3, run #3 12 events processed so far  <<<===
IOVDbTestAlg                    DEBUG Event (run,ev,lb:time): [3,3:60]
IOVDbTestAlg                    DEBUG Event NOT selected for creating conditions objects 
AthenaEventLoopMgr               INFO   ===>>>  done processing event #3, run #3 13 events processed so far  <<<===
AthenaEventLoopMgr               INFO   ===>>>  start processing event #4, run #3 13 events processed so far  <<<===
IOVDbTestAlg                    DEBUG Event (run,ev,lb:time): [3,4:65]
IOVDbTestAlg                    DEBUG Event NOT selected for creating conditions objects 
AthenaEventLoopMgr               INFO   ===>>>  done processing event #4, run #3 14 events processed so far  <<<===
AthenaEventLoopMgr               INFO   ===>>>  start processing event #5, run #3 14 events processed so far  <<<===
IOVDbTestAlg                    DEBUG Event (run,ev,lb:time): [3,5:70]
IOVDbTestAlg                    DEBUG Event NOT selected for creating conditions objects 
AthenaEventLoopMgr               INFO   ===>>>  done processing event #5, run #3 15 events processed so far  <<<===
AthenaEventLoopMgr               INFO   ===>>>  start of run 4    <<<===
AthenaEventLoopMgr               INFO   ===>>>  start processing event #1, run #4 15 events processed so far  <<<===
IOVDbTestAlg                    DEBUG Event (run,ev,lb:time): [4,1:75]
IOVDbTestAlg                    DEBUG Event NOT selected for creating conditions objects 
AthenaEventLoopMgr               INFO   ===>>>  done processing event #1, run #4 16 events processed so far  <<<===
AthenaEventLoopMgr               INFO   ===>>>  start processing event #2, run #4 16 events processed so far  <<<===
IOVDbTestAlg                    DEBUG Event (run,ev,lb:time): [4,2:80]
IOVDbTestAlg                    DEBUG Event NOT selected for creating conditions objects 
AthenaEventLoopMgr               INFO   ===>>>  done processing event #2, run #4 17 events processed so far  <<<===
AthenaEventLoopMgr               INFO   ===>>>  start processing event #3, run #4 17 events processed so far  <<<===
IOVDbTestAlg                    DEBUG Event (run,ev,lb:time): [4,3:85]
IOVDbTestAlg                    DEBUG Event NOT selected for creating conditions objects 
AthenaEventLoopMgr               INFO   ===>>>  done processing event #3, run #4 18 events processed so far  <<<===
AthenaEventLoopMgr               INFO   ===>>>  start processing event #4, run #4 18 events processed so far  <<<===
IOVDbTestAlg                    DEBUG Event (run,ev,lb:time): [4,4:90]
IOVDbTestAlg                    DEBUG Event NOT selected for creating conditions objects 
AthenaEventLoopMgr               INFO   ===>>>  done processing event #4, run #4 19 events processed so far  <<<===
AthenaEventLoopMgr               INFO   ===>>>  start processing event #5, run #4 19 events processed so far  <<<===
IOVDbTestAlg                    DEBUG Event (run,ev,lb:time): [4,5:95]
IOVDbTestAlg                    DEBUG Event NOT selected for creating conditions objects 
AthenaEventLoopMgr               INFO   ===>>>  done processing event #5, run #4 20 events processed so far  <<<===
AthenaEventLoopMgr               INFO   ===>>>  start of run 5    <<<===
AthenaEventLoopMgr               INFO   ===>>>  start processing event #1, run #5 20 events processed so far  <<<===
IOVDbTestAlg                    DEBUG Event (run,ev,lb:time): [5,1:100]
IOVDbTestAlg                    DEBUG Event NOT selected for creating conditions objects 
AthenaEventLoopMgr               INFO   ===>>>  done processing event #1, run #5 21 events processed so far  <<<===
AthenaEventLoopMgr               INFO   ===>>>  start processing event #2, run #5 21 events processed so far  <<<===
IOVDbTestAlg                    DEBUG Event (run,ev,lb:time): [5,2:105]
IOVDbTestAlg                    DEBUG Event NOT selected for creating conditions objects 
AthenaEventLoopMgr               INFO   ===>>>  done processing event #2, run #5 22 events processed so far  <<<===
AthenaEventLoopMgr               INFO   ===>>>  start processing event #3, run #5 22 events processed so far  <<<===
IOVDbTestAlg                    DEBUG Event (run,ev,lb:time): [5,3:110]
IOVDbTestAlg                    DEBUG Event NOT selected for creating conditions objects 
AthenaEventLoopMgr               INFO   ===>>>  done processing event #3, run #5 23 events processed so far  <<<===
AthenaEventLoopMgr               INFO   ===>>>  start processing event #4, run #5 23 events processed so far  <<<===
IOVDbTestAlg                    DEBUG Event (run,ev,lb:time): [5,4:115]
IOVDbTestAlg                    DEBUG Event NOT selected for creating conditions objects 
AthenaEventLoopMgr               INFO   ===>>>  done processing event #4, run #5 24 events processed so far  <<<===
AthenaEventLoopMgr               INFO   ===>>>  start processing event #5, run #5 24 events processed so far  <<<===
IOVDbTestAlg                    DEBUG Event (run,ev,lb:time): [5,5:120]
IOVDbTestAlg                    DEBUG Event NOT selected for creating conditions objects 
AthenaEventLoopMgr               INFO   ===>>>  done processing event #5, run #5 25 events processed so far  <<<===
Domain[ROOT_All]                 INFO >   Deaccess DbDomain     READ      [ROOT_All] 
ApplicationMgr                   INFO Application Manager Stopped successfully
IncidentProcAlg1                 INFO Finalize
IOVDbTestAlg                     INFO in finalize()
IOVDbTestAlg                    DEBUG Stream out objects directly 
IOVDbTestAlg                    DEBUG entering streamOutCondObjects 
DbSession                        INFO     Open     DbSession    
Domain[ROOT_All]                 INFO >   Access   DbDomain     UPDATE    [ROOT_All] 
Domain[ROOT_All]                 INFO ->  Access   DbDatabase   CREATE    [ROOT_All] A300FBEC-B338-7547-8B03-B1E50FABF18C
Domain[ROOT_All]                 INFO                           SimplePoolFile.root
RootDatabase.open                INFO SimplePoolFile.root File version:61404
IOVDbTestAlg                    DEBUG Stream out for pairs:
IOVDbTestAlg                    DEBUG IOVDbTestMDTEleMap  
IOVDbTestAlg                    DEBUG IOVDbTestAmdbCorrection  
IOVDbTestAlg                    DEBUG IOVDbTestMDTEleMapColl  
ClassIDSvc                       INFO  getRegistryEntries: read 108 CLIDRegistry entries for module ALL
StorageSvc                       INFO Building shape according to reflection information using shape ID for:
StorageSvc                       INFO IOVDbTestMDTEleMap [DBDD3779-7E80-463C-9E29-5AAA08432783]
StorageSvc                       INFO Building shape according to reflection information using shape ID for:
StorageSvc                       INFO CondMultChanCollImpl [1F1A18E0-CAFF-4AE4-84CC-2DC822C42AAA]
StorageSvc                       INFO Building shape according to reflection information using shape ID for:
StorageSvc                       INFO IOVDbTestAmdbCorrection [C3B137B3-F09E-4B75-B14C-AAA2B64408BB]
StorageSvc                       INFO Building shape according to reflection information using shape ID for:
StorageSvc                       INFO DataHeaderForm_p5 [3397D8A3-BBE6-463C-9F8E-4B3DFD8831FE]
StorageSvc                       INFO Building shape according to reflection information using shape ID for:
StorageSvc                       INFO DataHeader_p5 [D82968A1-CF91-4320-B2DD-E0F739CBC7E6]
IOVDbTestAlg                    DEBUG Streamed out OK 
IOVDbTestAlg                    DEBUG Calling destructor
IncidentProcAlg2                 INFO Finalize
EventSelector                    INFO finalize
SimplePoolFile.root              INFO Database being retired...
RootDatabase.close              ERROR Failed to modify file: SimplePoolFile.root Errno=2 No such file or directory
Domain[ROOT_All]                 INFO ->  Deaccess DbDatabase   CREATE    [ROOT_All] A300FBEC-B338-7547-8B03-B1E50FABF18C
Domain[ROOT_All]                 INFO >   Deaccess DbDomain     UPDATE    [ROOT_All] 
AthDictLoaderSvc                 INFO in finalize...
ToolSvc                          INFO Removing all tools created by ToolSvc
*****Chrono*****                 INFO ****************************************************************************************************
*****Chrono*****                 INFO  The Final CPU consumption ( Chrono ) Table (ordered)
*****Chrono*****                 INFO ****************************************************************************************************
commitOutput                     INFO Time User   : Tot=    0 [us]                                             #=  1
cRepR_ALL                        INFO Time User   : Tot=    0 [us] Ave/Min/Max=    0(+-    0)/    0/    0 [us] #= 15
fRep_ALL                         INFO Time User   : Tot=   10 [ms] Ave/Min/Max=  2.5(+- 4.33)/    0/   10 [ms] #=  4
cRep_ALL                         INFO Time User   : Tot=   20 [ms] Ave/Min/Max=    5(+-    5)/    0/   10 [ms] #=  4
ChronoStatSvc                    INFO Time User   : Tot= 0.68  [s]                                             #=  1
*****Chrono*****                 INFO ****************************************************************************************************
ChronoStatSvc.finalize()         INFO  Service finalized successfully 
ApplicationMgr                   INFO Application Manager Finalized successfully
ApplicationMgr                   INFO Application Manager Terminated successfully
Py:Athena            INFO leaving with code 0: "successful run"
